{
  "name": "team",
  "base": "PersistedModel",
  "idInjection": true,
  "properties": {
    "ownerId": {
      "type": "string",
      "required": true
    },
    "memberId": {
      "type": "string",
      "required": true
    }
  },
  "validations": [],
  "relations": {},
  "acls": [
    {
      "accessType": "EXECUTE",
      "principalType": "ROLE",
      "principalId": "ProjManager",
      "permission": "ALLOW",
      "property": "proof"
    }
  ],
  "methods": {}
}
